HSV image:[[0.33333333 0.33333333 0.33333333 ... 0.33333333 0.33333333 0.33333333]
 [0.33333333 0.33333333 0.33333333 ... 0.33333333 0.33333333 0.33333333]
 [0.33333333 0.33333333 0.33333333 ... 0.33333333 0.33333333 0.33333333]
 ...
 [0.33333333 0.33333333 0.33333333 ... 0.33333333 0.33333333 0.33333333]
 [0.33333333 0.33333333 0.33333333 ... 0.33333333 0.33333333 0.33333333]
 [0.33333333 0.33333333 0.33333333 ... 0.33333333 0.33333333 0.33333333]]